<?xml version="1.0" encoding="UTF-8" standalone="no"?>
<svg
   xmlns:osb="http://www.openswatchbook.org/uri/2009/osb"
   xmlns:dc="http://purl.org/dc/elements/1.1/"
   xmlns:cc="http://creativecommons.org/ns#"
   xmlns:rdf="http://www.w3.org/1999/02/22-rdf-syntax-ns#"
   xmlns:svg="http://www.w3.org/2000/svg"
   xmlns="http://www.w3.org/2000/svg"
   xmlns:sodipodi="http://sodipodi.sourceforge.net/DTD/sodipodi-0.dtd"
   xmlns:inkscape="http://www.inkscape.org/namespaces/inkscape"
   viewBox="0 0 500 500"
   version="1.1"
   id="svg8"
   sodipodi:docname="newlyrisenghoul.svg"
   inkscape:version="0.92.3 (2405546, 2018-03-11)"
   width="500"
   height="500">
  <metadata
     id="metadata14">
    <rdf:RDF>
      <cc:Work
         rdf:about="">
        <dc:format>image/svg+xml</dc:format>
        <dc:type
           rdf:resource="http://purl.org/dc/dcmitype/StillImage" />
        <dc:title></dc:title>
      </cc:Work>
    </rdf:RDF>
  </metadata>
  <defs
     id="defs12">
    <linearGradient
       id="linearGradient816"
       osb:paint="solid">
      <stop
         style="stop-color:#000000;stop-opacity:1;"
         offset="0"
         id="stop814" />
    </linearGradient>
  </defs>
  <sodipodi:namedview
     pagecolor="#ffffff"
     bordercolor="#666666"
     borderopacity="1"
     objecttolerance="10"
     gridtolerance="10"
     guidetolerance="10"
     inkscape:pageopacity="0"
     inkscape:pageshadow="2"
     inkscape:window-width="1920"
     inkscape:window-height="1017"
     id="namedview10"
     showgrid="false"
     inkscape:zoom="0.65186405"
     inkscape:cx="296.8386"
     inkscape:cy="417.82339"
     inkscape:window-x="-8"
     inkscape:window-y="-8"
     inkscape:window-maximized="1"
     inkscape:current-layer="svg8" />
  <rect
     style="opacity:1;vector-effect:none;fill:#ffffff;fill-opacity:1;fill-rule:nonzero;stroke:#000000;stroke-width:23.43147469;stroke-linecap:butt;stroke-linejoin:miter;stroke-miterlimit:4;stroke-dasharray:none;stroke-dashoffset:0;stroke-opacity:1"
     id="rect5078"
     width="476.56851"
     height="476.56851"
     x="11.715744"
     y="11.715744"
     ry="127.84441" />
  <path
     style="fill:#d4ff2a;fill-opacity:1;stroke-width:0.90351939"
     inkscape:connector-curvature="0"
     id="path4-5"
     d="m 109.38286,36.75021 -20.40764,4.57421 3.8885,15.34198 20.40578,-4.5742 z m 177.5864,18.35904 -19.68286,6.82625 5.80015,14.79869 19.68472,-6.82625 -5.80108,-14.79869 z M 336.28075,74.63023 323.70787,85.06678 337.58592,99.86109 350.16067,89.4263 336.27982,74.62936 Z M 88.66127,96.30075 74.13295,104.18206 84.61346,121.27487 99.13898,113.39532 88.65847,96.30338 Z m 359.23922,43.4164 -16.13066,12.61324 10.72086,12.12953 16.12973,-12.61499 -10.71899,-12.12778 z m -319.67414,4.03967 -5.08375,15.03179 19.99215,5.98327 5.08282,-15.03266 -19.99215,-5.98152 z m 296.40555,108.27723 -14.95219,13.83916 11.75867,11.24448 14.95498,-13.84004 -11.76146,-11.24448 z m -240.42565,26.19564 -5.08189,15.03091 19.99216,5.9824 5.08095,-15.03091 -19.99216,-5.98152 z"
     sodipodi:nodetypes="ccccccccccccccccccccccccccccccccccccccccccccccc" />
  <path
     style="fill:#d4ff2a;fill-opacity:1;stroke-width:3.904;stroke:#75fe06;stroke-opacity:1;stroke-miterlimit:4;stroke-dasharray:none;fill-rule:nonzero"
     inkscape:connector-curvature="0"
     id="path4"
     d="m 161.00287,45.141513 c -10.07247,0.01577 -17.97338,3.21246 -22.82888,9.064288 -5.1797,6.241774 -6.3973,14.907352 -3.25501,24.871587 3.14135,9.96335 10.80843,20.72062 22.33326,29.169762 11.52577,8.44738 24.49179,12.81566 35.54057,13.2538 11.04506,0.43814 19.69031,-2.78483 24.87001,-9.02573 5.1797,-6.24265 6.39637,-14.907352 3.25408,-24.870712 -0.32573,-1.014962 -0.68991,-2.018655 -1.09183,-3.00916 -8.18877,5.91843 -13.63118,16.272602 -20.50826,11.95603 -1.88183,-1.18036 3.91738,-15.14571 12.56729,-25.39473 -2.61448,-3.284904 -5.54934,-6.333 -8.76636,-9.104596 L 179.52216,72.716438 166.76295,61.636693 c 1.88929,-1.529116 16.96911,-3.910857 29.38269,-4.909822 C 185.25523,49.39938 173.31863,45.587542 163.044,45.180946 c -0.68061,-0.02716 -1.36178,-0.0403 -2.043,-0.03943 z m 72.55958,73.355537 c -0.80926,1.27489 -1.70125,2.50167 -2.6709,3.67338 -9.0831,10.94742 -23.73066,15.68111 -38.80862,15.08349 -5.56445,-0.22083 -11.25374,-1.13479 -16.92346,-2.71298 -0.64467,7.62543 -0.61672,15.35513 -0.0168,23.11025 l 6.80069,-2.95308 0.4658,14.79607 12.02696,2.17756 -6.93856,13.05489 16.19122,13.4904 -15.26707,5.65817 7.86644,8.26774 -6.49047,5.65204 c 9.96534,25.3921 23.49218,48.65307 36.3343,66.55907 15.63226,21.79933 31.12198,61.73074 31.77317,86.18433 l -35.0226,83.50729 105.80656,1.04015 0.73876,-18.01992 -7.05874,-1.15669 -11.80618,10.79758 -9.71659,-7.83399 h -8.32852 l -1.22226,-8.05568 -19.82446,-3.24926 26.42951,-55.47758 c 1.24276,-32.63108 -9.49021,-55.36365 -17.43956,-87.99474 16.15395,10.4164 31.79553,20.60759 46.78499,31.08532 3.15812,-2.76731 7.2199,-4.96853 13.8529,-5.5574 4.45305,7.00152 4.70179,12.87525 4.11115,18.52203 23.4633,17.57827 44.987,36.49725 63.84819,59.02302 l 51.61348,-84.55094 -15.25496,-7.94264 -42.25741,37.74508 c -23.59,-30.12667 -57.8021,-52.56831 -94.92546,-77.60376 -2.80785,-8.3729 -6.79323,-16.22178 -11.3618,-23.70788 -3.12739,4.20266 -7.3345,7.99434 -10.83173,10.62495 -6.81372,5.12627 -18.90031,1.877 -21.74356,-3.48148 -2.84138,-5.35935 10.33518,-8.46315 7.4025,-13.4904 -2.93268,-5.02812 -15.97974,2.76731 -20.35734,-1.74118 -4.37573,-4.50848 -5.61289,-11.47932 0,-17.40739 3.51028,-3.70493 11.57048,-5.2726 19.33072,-5.21827 1.54568,0.0119 3.08999,0.0897 4.62819,0.23309 -8.2102,-11.01227 -15.75803,-21.66876 -20.04432,-32.6048 27.45055,2.81288 54.89644,5.63627 80.89276,15.28416 5.27845,13.33442 1.10674,26.66972 -4.57975,40.00414 4.20711,0.80005 9.07192,0.88242 13.42436,-4.81781 11.30405,-14.80921 18.9469,-33.24273 13.40294,-51.18729 -1.28747,-4.16761 -37.28732,-12.45726 -72.47388,-19.4763 25.90782,-3.06436 54.02353,-5.08946 83.38386,-6.53007 13.37033,4.35514 19.81142,17.03497 20.33498,35.28447 14.51434,-6.60981 18.53886,-13.54122 19.10341,-23.45813 0.87291,-15.31746 -11.58167,-28.63085 -20.35548,-31.123 -3.50282,-1.08659 -128.03548,0.23046 -154.82739,-3.50952 z"
     sodipodi:nodetypes="ccccccccccccccccccccccccccccccccccccccccccccccccccccccccccccccccccccccc" />
</svg>
