<?xml version="1.0" encoding="UTF-8" standalone="no"?>
<svg
   xmlns:dc="http://purl.org/dc/elements/1.1/"
   xmlns:cc="http://creativecommons.org/ns#"
   xmlns:rdf="http://www.w3.org/1999/02/22-rdf-syntax-ns#"
   xmlns:svg="http://www.w3.org/2000/svg"
   xmlns="http://www.w3.org/2000/svg"
   xmlns:sodipodi="http://sodipodi.sourceforge.net/DTD/sodipodi-0.dtd"
   xmlns:inkscape="http://www.inkscape.org/namespaces/inkscape"
   viewBox="0 0 500 500"
   version="1.1"
   id="svg8"
   sodipodi:docname="zombie headless.svg"
   inkscape:version="0.92.3 (2405546, 2018-03-11)"
   width="500"
   height="500">
  <metadata
     id="metadata14">
    <rdf:RDF>
      <cc:Work
         rdf:about="">
        <dc:format>image/svg+xml</dc:format>
        <dc:type
           rdf:resource="http://purl.org/dc/dcmitype/StillImage" />
        <dc:title></dc:title>
      </cc:Work>
    </rdf:RDF>
  </metadata>
  <defs
     id="defs12" />
  <sodipodi:namedview
     pagecolor="#ffffff"
     bordercolor="#666666"
     borderopacity="1"
     objecttolerance="10"
     gridtolerance="10"
     guidetolerance="10"
     inkscape:pageopacity="0"
     inkscape:pageshadow="2"
     inkscape:window-width="1920"
     inkscape:window-height="1017"
     id="namedview10"
     showgrid="false"
     inkscape:zoom="1.3037281"
     inkscape:cx="176.0821"
     inkscape:cy="265.18004"
     inkscape:window-x="-8"
     inkscape:window-y="-8"
     inkscape:window-maximized="1"
     inkscape:current-layer="svg8" />
  <rect
     style="opacity:1;vector-effect:none;fill:#ffffff;fill-opacity:1;fill-rule:nonzero;stroke:#000000;stroke-width:23.43147469;stroke-linecap:butt;stroke-linejoin:miter;stroke-miterlimit:4;stroke-dasharray:none;stroke-dashoffset:0;stroke-opacity:1"
     id="rect5078"
     width="476.56851"
     height="476.56851"
     x="11.715744"
     y="11.715744"
     ry="127.84441" />
  <path
     style="fill:#000000;fill-opacity:1"
     inkscape:connector-curvature="0"
     id="path4"
     d="m 171.63297,61.005414 c -0.86868,1.45488 -1.82616,2.85486 -2.867,4.192 -9.75,12.493 -25.473,17.895 -41.658,17.213 -5.973,-0.252 -12.08,-1.295 -18.166,-3.096 -0.692,8.702 -0.662,17.523 -0.018,26.372996 l 7.3,-3.37 0.5,16.885 12.91,2.485 -7.448,14.898 17.38,15.395 -16.388,6.457 8.444,9.435 -6.967,6.45 c 10.697,28.977 25.217,55.522 39.002,75.956 16.78,24.877 33.407,70.446 34.106,98.352 l -37.594,95.297 113.575,1.187 0.793,-20.564 -7.577,-1.32 -12.673,12.322 -10.43,-8.94 h -8.94 l -1.312,-9.193 -21.28,-3.708 28.37,-63.31 c 1.334,-37.238 -10.187,-63.18 -18.72,-100.418 17.34,11.887 34.13,23.517 50.22,35.474 3.39,-3.158 7.75,-5.67 14.87,-6.342 4.78,7.99 5.047,14.693 4.413,21.137 25.186,20.06 48.29,41.65 68.536,67.356 l 55.403,-96.488 -16.375,-9.064 -45.36,43.074 c -25.322,-34.38 -62.046,-59.99 -101.895,-88.56 -3.014,-9.555 -7.292,-18.512 -12.196,-27.055 -3.357,4.796 -7.873,9.123 -11.627,12.125 -7.314,5.85 -20.288,2.142 -23.34,-3.973 -3.05,-6.116 11.094,-9.658 7.946,-15.395 -3.148,-5.738 -17.153,3.158 -21.852,-1.987 -4.697,-5.145 -6.025,-13.1 0,-19.865 3.768,-4.228 12.42,-6.017 20.75,-5.955 1.65917,0.0136 3.31687,0.10236 4.968,0.266 -8.813,-12.567 -16.915,-24.728 -21.516,-37.208 29.466,3.21 58.927,6.432 86.832,17.442 5.666,15.217 1.188,30.435 -4.916,45.652 4.516,0.913 9.738,1.007 14.41,-5.498 12.134,-16.9 20.338,-37.936 14.387,-58.414 -1.382,-4.756 -40.025,-14.216 -77.795,-22.225996 27.81,-3.497 57.99,-5.808 89.506,-7.452 14.352,4.97 21.266,19.439996 21.828,40.265996 15.58,-7.543 19.9,-15.453 20.506,-26.77 0.937,-17.479996 -12.432,-32.672996 -21.85,-35.516996 -3.76,-1.24 -137.436,0.263 -166.195,-4.005 z"
     sodipodi:nodetypes="cccccccccccccccccccccccccccccccccccccccccccccccccccccc" />
</svg>
